id,trigger,conditions,script,text,options,notes
greetingMercHostileWeaker,OpenCommLink,"$faction.id == merc_hostile
$entity.isHostile
$entity.relativeStrength < 0",,"""Commander, it was nothing personal. You beat me, fair and square. I won't bother you again.""",cutCommLink:Cut the comm link,
greetingMercHostileWeakerDefiant,OpenCommLink,"$faction.id == merc_hostile
$entity.isHostile
$entity.relativeStrength < 0
$entity.weakerThanPlayerButHolding",$entity.ignorePlayerCommRequests = true 1,"""I'll take you down, or I'll die trying!""",cutCommLink:Cut the comm link,
greetingMercHostileStronger,OpenCommLink,"$faction.id == merc_hostile
$entity.isHostile
$entity.relativeStrength >= 0",$entity.ignorePlayerCommRequests = true 1,"""Attention, $playerName: there's a bounty with your name on it, and we're here to collect. Prepare to die.""",cutCommLink:Cut the comm link,
,,,,,,
encounterVengeanceFleet,BeginFleetEncounter,"$relativeStrength >= 0
$isHostile
!$talked
$fleetType == vengeanceFleet score:1000","unset $entity.ignorePlayerCommRequests
AddText ""You're being hailed by the $faction $otherShipOrFleet."" $faction.baseColor
$talked = true 7
OpenComms",,,
encounterVengeanceFleetTOff,BeginFleetEncounter,"$fleetType == vengeanceFleet score:1000
!$isHostile
!$vengeance_toffmad
!$player.transponderOn score:100","unset $ignorePlayerCommRequests
$vengeance_toffmad = true 7
AddText ""You're being hailed by the $faction $otherShipOrFleet."" $faction.baseColor
$talked = true 7
OpenComms",,,
encounterVengeanceFleetTOffMad,BeginFleetEncounter,"$fleetType == vengeanceFleet score:1000
!$isHostile
$vengeance_toffmad
!$player.transponderOn score:100","MakeOtherFleetPreventDisengage tOff true
MakeOtherFleetAggressive tOff true
$ignorePlayerCommRequests = true 1
$vengeance_toffmad = true 7",,,
greetingVengeanceMadStrongerA,OpenCommLink,"$entity.relativeStrength >= 0
$entity.escalation == 0
$entity.fleetType == vengeanceFleet score:100",$entity.ignorePlayerCommRequests = true 1,"""$playerName, $theFactionLong $factionIsOrAre not going to suffer you any longer.""",cutCommLink:Cut the comm link,
greetingVengeanceMadWeakerDefiantA,OpenCommLink,"$entity.relativeStrength < 0
$entity.weakerThanPlayerButHolding
$entity.escalation == 0
$entity.fleetType == vengeanceFleet score:100",$entity.ignorePlayerCommRequests = true 1,"""$playerName, $theFactionLong $factionIsOrAre not going to suffer you any longer.""",cutCommLink:Cut the comm link,
greetingVengeanceMadStrongerB,OpenCommLink,"$entity.relativeStrength >= 0
$entity.escalation == 0
$entity.fleetType == vengeanceFleet score:100",$entity.ignorePlayerCommRequests = true 1,"""Your time has come, $playerName.""",cutCommLink:Cut the comm link,
greetingVengeanceMadWeakerDefiantB,OpenCommLink,"$entity.relativeStrength < 0
$entity.weakerThanPlayerButHolding
$entity.escalation == 0
$entity.fleetType == vengeanceFleet score:100",$entity.ignorePlayerCommRequests = true 1,"""Your time has come, $playerName.""",cutCommLink:Cut the comm link,
greetingVengeanceMadStrongerC,OpenCommLink,"$entity.relativeStrength >= 0
$entity.escalation == 0
$entity.fleetType == vengeanceFleet score:100",$entity.ignorePlayerCommRequests = true 1,"""$TheFactionLong sends their regards, $playerName.""",cutCommLink:Cut the comm link,
greetingVengeanceMadWeakerDefiantC,OpenCommLink,"$entity.relativeStrength < 0
$entity.weakerThanPlayerButHolding
$entity.escalation == 0
$entity.fleetType == vengeanceFleet score:100",$entity.ignorePlayerCommRequests = true 1,"""$TheFactionLong sends their regards, $playerName.""",cutCommLink:Cut the comm link,
greetingVengeanceRavingMadStrongerA,OpenCommLink,"$entity.relativeStrength >= 0
$entity.escalation == 1
$entity.fleetType == vengeanceFleet score:100",$entity.ignorePlayerCommRequests = true 1,"""$TheFactionLong signed your death warrant, $playerName. Prepare to die.""",cutCommLink:Cut the comm link,
greetingVengeanceRavingMadWeakerDefiantA,OpenCommLink,"$entity.relativeStrength < 0
$entity.weakerThanPlayerButHolding
$entity.escalation == 1
$entity.fleetType == vengeanceFleet score:100",$entity.ignorePlayerCommRequests = true 1,"""$TheFactionLong signed your death warrant, $playerName. Prepare to die.""",cutCommLink:Cut the comm link,
greetingVengeanceRavingMadStrongerB,OpenCommLink,"$entity.relativeStrength >= 0
$entity.escalation == 1
$entity.fleetType == vengeanceFleet score:100",$entity.ignorePlayerCommRequests = true 1,"""This is the end for you, $playerName. $TheFactionLong wills it.""",cutCommLink:Cut the comm link,
greetingVengeanceRavingMadWeakerDefiantB,OpenCommLink,"$entity.relativeStrength < 0
$entity.weakerThanPlayerButHolding
$entity.escalation == 1
$entity.fleetType == vengeanceFleet score:100",$entity.ignorePlayerCommRequests = true 1,"""This is the end for you, $playerName. $TheFactionLong wills it.""",cutCommLink:Cut the comm link,
greetingVengeanceRavingMadStrongerC,OpenCommLink,"$entity.relativeStrength >= 0
$entity.escalation == 1
$entity.fleetType == vengeanceFleet score:100",$entity.ignorePlayerCommRequests = true 1,"""We've come here to kill you, $playerName. Die in the name of $theFactionLong!""",cutCommLink:Cut the comm link,
greetingVengeanceRavingMadWeakerDefiantC,OpenCommLink,"$entity.relativeStrength < 0
$entity.weakerThanPlayerButHolding
$entity.escalation == 1
$entity.fleetType == vengeanceFleet score:100",$entity.ignorePlayerCommRequests = true 1,"""We've come here to kill you, $playerName. Die in the name of $theFactionLong!""",cutCommLink:Cut the comm link,
greetingVengeanceStarkRavingMadStrongerA,OpenCommLink,"$entity.relativeStrength >= 0
$entity.escalation == 2
$entity.fleetType == vengeanceFleet score:100",$entity.ignorePlayerCommRequests = true 1,"""There is no escape for you now, $playerName. $TheFactionLong will hunt you to the ends of the sector!""",cutCommLink:Cut the comm link,
greetingVengeanceStarkRavingMadWeakerDefiantA,OpenCommLink,"$entity.relativeStrength < 0
$entity.weakerThanPlayerButHolding
$entity.escalation == 2
$entity.fleetType == vengeanceFleet score:100",$entity.ignorePlayerCommRequests = true 1,"""There is no escape for you now, $playerName. $TheFactionLong will hunt you to the ends of the sector!""",cutCommLink:Cut the comm link,
greetingVengeanceStarkRavingMadStrongerB,OpenCommLink,"$entity.relativeStrength >= 0
$entity.escalation == 2
$entity.fleetType == vengeanceFleet score:100",$entity.ignorePlayerCommRequests = true 1,"""It's over! You die here, $playerName. $TheFactionLong will never give up!""",cutCommLink:Cut the comm link,
greetingVengeanceStarkRavingMadWeakerDefiantB,OpenCommLink,"$entity.relativeStrength < 0
$entity.weakerThanPlayerButHolding
$entity.escalation == 2
$entity.fleetType == vengeanceFleet score:100",$entity.ignorePlayerCommRequests = true 1,"""It's over! You die here, $playerName. $TheFactionLong will never give up!""",cutCommLink:Cut the comm link,
greetingVengeanceStarkRavingMadStrongerC,OpenCommLink,"$entity.relativeStrength >= 0
$entity.escalation == 2
$entity.fleetType == vengeanceFleet score:100",$entity.ignorePlayerCommRequests = true 1,"""$playerName, on behalf of $theFactionLong, I hereby sentence you to death. Your execution shall be summary!""",cutCommLink:Cut the comm link,
greetingVengeanceStarkRavingMadWeakerDefiantC,OpenCommLink,"$entity.relativeStrength < 0
$entity.weakerThanPlayerButHolding
$entity.escalation == 2
$entity.fleetType == vengeanceFleet score:100",$entity.ignorePlayerCommRequests = true 1,"""$playerName, on behalf of $theFactionLong, I hereby sentence you to death. Your execution shall be summary!""",cutCommLink:Cut the comm link,
greetingVengeanceMadStrongerPiratesA,OpenCommLink,"$faction.id == pirates
$entity.relativeStrength >= 0
$entity.escalation == 0
$entity.fleetType == vengeanceFleet score:100",$entity.ignorePlayerCommRequests = true 1,"""You've made some powerful enemies, $playerName. This is goodbye.""",cutCommLink:Cut the comm link,
greetingVengeanceMadWeakerDefiantPiratesA,OpenCommLink,"$faction.id == pirates
$entity.relativeStrength < 0
$entity.weakerThanPlayerButHolding
$entity.escalation == 0
$entity.fleetType == vengeanceFleet score:100",$entity.ignorePlayerCommRequests = true 1,"""You've made some powerful enemies, $playerName. This is goodbye.""",cutCommLink:Cut the comm link,
greetingVengeanceMadStrongerPiratesB,OpenCommLink,"$faction.id == pirates
$entity.relativeStrength >= 0
$entity.escalation == 0
$entity.fleetType == vengeanceFleet score:100",$entity.ignorePlayerCommRequests = true 1,"""This is the end for you!""",cutCommLink:Cut the comm link,
greetingVengeanceMadWeakerDefiantPiratesB,OpenCommLink,"$faction.id == pirates
$entity.relativeStrength < 0
$entity.weakerThanPlayerButHolding
$entity.escalation == 0
$entity.fleetType == vengeanceFleet score:100",$entity.ignorePlayerCommRequests = true 1,"""This is the end for you!""",cutCommLink:Cut the comm link,
greetingVengeanceMadStrongerPiratesC,OpenCommLink,"$faction.id == pirates
$entity.relativeStrength >= 0
$entity.escalation == 0
$entity.fleetType == vengeanceFleet score:100",$entity.ignorePlayerCommRequests = true 1,"""When I'm through with you, $playerName, you'll wish you had never been born!""",cutCommLink:Cut the comm link,
greetingVengeanceMadWeakerDefiantPiratesC,OpenCommLink,"$faction.id == pirates
$entity.relativeStrength < 0
$entity.weakerThanPlayerButHolding
$entity.escalation == 0
$entity.fleetType == vengeanceFleet score:100",$entity.ignorePlayerCommRequests = true 1,"""When I'm through with you, $playerName, you'll wish you had never been born!""",cutCommLink:Cut the comm link,
greetingVengeanceRavingMadStrongerPiratesA,OpenCommLink,"$faction.id == pirates
$entity.relativeStrength >= 0
$entity.escalation == 1
$entity.fleetType == vengeanceFleet score:100",$entity.ignorePlayerCommRequests = true 1,"""The Boss sends his regards, you son of a bitch!""",cutCommLink:Cut the comm link,
greetingVengeanceRavingMadWeakerDefiantPiratesA,OpenCommLink,"$faction.id == pirates
$entity.relativeStrength < 0
$entity.weakerThanPlayerButHolding
$entity.escalation == 1
$entity.fleetType == vengeanceFleet score:100",$entity.ignorePlayerCommRequests = true 1,"""The Boss sends his regards, you son of a bitch!""",cutCommLink:Cut the comm link,
greetingVengeanceRavingMadStrongerPiratesB,OpenCommLink,"$faction.id == pirates
$entity.relativeStrength >= 0
$entity.escalation == 1
$entity.fleetType == vengeanceFleet score:100",$entity.ignorePlayerCommRequests = true 1,"""You've crossed us for the last time. Time to die!""",cutCommLink:Cut the comm link,
greetingVengeanceRavingMadWeakerDefiantPiratesB,OpenCommLink,"$faction.id == pirates
$entity.relativeStrength < 0
$entity.weakerThanPlayerButHolding
$entity.escalation == 1
$entity.fleetType == vengeanceFleet score:100",$entity.ignorePlayerCommRequests = true 1,"""You've crossed us for the last time. Time to die!""",cutCommLink:Cut the comm link,
greetingVengeanceRavingMadStrongerPiratesC,OpenCommLink,"$faction.id == pirates
$entity.relativeStrength >= 0
$entity.escalation == 1
$entity.fleetType == vengeanceFleet score:100",$entity.ignorePlayerCommRequests = true 1,"""We'll see you in Hell, $playerName!""",cutCommLink:Cut the comm link,
greetingVengeanceRavingMadWeakerDefiantPiratesC,OpenCommLink,"$faction.id == pirates
$entity.relativeStrength < 0
$entity.weakerThanPlayerButHolding
$entity.escalation == 1
$entity.fleetType == vengeanceFleet score:100",$entity.ignorePlayerCommRequests = true 1,"""We'll see you in Hell, $playerName!""",cutCommLink:Cut the comm link,
greetingVengeanceMadStrongerCabal,OpenCommLink,"$faction.id == cabal
$entity.relativeStrength >= 0
$entity.escalation == 0
$entity.fleetType == vengeanceFleet score:100",$entity.ignorePlayerCommRequests = true 1,"""Heresy of this magnitude is answerable with death. Farewell!""",cutCommLink:Cut the comm link,
greetingVengeanceMadWeakerDefiantCabal,OpenCommLink,"$faction.id == cabal
$entity.relativeStrength < 0
$entity.weakerThanPlayerButHolding
$entity.escalation == 0
$entity.fleetType == vengeanceFleet score:100",$entity.ignorePlayerCommRequests = true 1,"""Heresy of this magnitude is answerable with death. Farewell!""",cutCommLink:Cut the comm link,
greetingVengeanceRavingMadStrongerCabal,OpenCommLink,"$faction.id == cabal
$entity.relativeStrength >= 0
$entity.escalation == 1
$entity.fleetType == vengeanceFleet score:100",$entity.ignorePlayerCommRequests = true 1,"""$TheFactionLong is here to take your head, $playerName. There is no escape!""",cutCommLink:Cut the comm link,
greetingVengeanceRavingMadWeakerDefiantCabal,OpenCommLink,"$faction.id == cabal
$entity.relativeStrength < 0
$entity.weakerThanPlayerButHolding
$entity.escalation == 1
$entity.fleetType == vengeanceFleet score:100",$entity.ignorePlayerCommRequests = true 1,"""$TheFactionLong is here to take your head, $playerName. There is no escape!""",cutCommLink:Cut the comm link,
greetingVengeanceMadStrongerLuddicChurch,OpenCommLink,"$faction.id == luddic_church
$entity.relativeStrength >= 0
$entity.escalation == 0
$entity.fleetType == vengeanceFleet score:100",$entity.ignorePlayerCommRequests = true 1,"""$TheFactionLong has not forgotten your sins, $playerName. Prepare to be destroyed!""",cutCommLink:Cut the comm link,
greetingVengeanceMadWeakerDefiantLuddicChurch,OpenCommLink,"$faction.id == luddic_church
$entity.relativeStrength < 0
$entity.weakerThanPlayerButHolding
$entity.escalation == 0
$entity.fleetType == vengeanceFleet score:100",$entity.ignorePlayerCommRequests = true 1,"""$TheFactionLong has not forgotten your sins, $playerName. Prepare to be destroyed!""",cutCommLink:Cut the comm link,
greetingVengeanceRavingMadStrongerLuddicChurch,OpenCommLink,"$faction.id == luddic_church
$entity.relativeStrength >= 0
$entity.escalation == 1
$entity.fleetType == vengeanceFleet score:100",$entity.ignorePlayerCommRequests = true 1,"""You are past redemption! The inquisition has come for you, heretic.""",cutCommLink:Cut the comm link,
greetingVengeanceRavingMadWeakerDefiantLuddicChurch,OpenCommLink,"$faction.id == luddic_church
$entity.relativeStrength < 0
$entity.weakerThanPlayerButHolding
$entity.escalation == 1
$entity.fleetType == vengeanceFleet score:100",$entity.ignorePlayerCommRequests = true 1,"""You are past redemption! The inquisition has come for you, heretic.""",cutCommLink:Cut the comm link,
greetingVengeanceStarkRavingMadStrongerLuddicChurch,OpenCommLink,"$faction.id == luddic_church
$entity.relativeStrength >= 0
$entity.escalation == 2
$entity.fleetType == vengeanceFleet score:100",$entity.ignorePlayerCommRequests = true 1,"""Burn in Hell, demon! The followers of Ludd shall strike you down!""",cutCommLink:Cut the comm link,
greetingVengeanceStarkRavingMadWeakerDefiantLuddicChurch,OpenCommLink,"$faction.id == luddic_church
$entity.relativeStrength < 0
$entity.weakerThanPlayerButHolding
$entity.escalation == 2
$entity.fleetType == vengeanceFleet score:100",$entity.ignorePlayerCommRequests = true 1,"""Burn in Hell, demon! The followers of Ludd shall strike you down!""",cutCommLink:Cut the comm link,
greetingVengeanceMadStrongerAhriman,OpenCommLink,"$faction.id == exipirated
$entity.relativeStrength >= 0
$entity.escalation == 0
$entity.fleetType == vengeanceFleet score:100",$entity.ignorePlayerCommRequests = true 1,"""You've made some powerful enemies, $playerName. This is goodbye.""",cutCommLink:Cut the comm link,
greetingVengeanceMadWeakerDefiantAhriman,OpenCommLink,"$faction.id == exipirated
$entity.relativeStrength < 0
$entity.weakerThanPlayerButHolding
$entity.escalation == 0
$entity.fleetType == vengeanceFleet score:100",$entity.ignorePlayerCommRequests = true 1,"""You've made some powerful enemies, $playerName. This is goodbye.""",cutCommLink:Cut the comm link,
greetingVengeanceRavingMadStrongerAhriman,OpenCommLink,"$faction.id == exipirated
$entity.relativeStrength >= 0
$entity.escalation == 1
$entity.fleetType == vengeanceFleet score:100",$entity.ignorePlayerCommRequests = true 1,"""We're going to make an example of you, $playerName; don't fuck with $theFactionLong!""",cutCommLink:Cut the comm link,
greetingVengeanceRavingMadWeakerDefiantAhriman,OpenCommLink,"$faction.id == exipirated
$entity.relativeStrength < 0
$entity.weakerThanPlayerButHolding
$entity.escalation == 1
$entity.fleetType == vengeanceFleet score:100",$entity.ignorePlayerCommRequests = true 1,"""We're going to make an example of you, $playerName; don't fuck with $theFactionLong!""",cutCommLink:Cut the comm link,
greetingVengeanceStarkRavingMadStrongerAhriman,OpenCommLink,"$faction.id == exipirated
$entity.relativeStrength >= 0
$entity.escalation == 2
$entity.fleetType == vengeanceFleet score:100",$entity.ignorePlayerCommRequests = true 1,"""The Associates have deemed you unworthy of life. Your pain shall be legendary!""",cutCommLink:Cut the comm link,
greetingVengeanceStarkRavingMadWeakerDefiantAhriman,OpenCommLink,"$faction.id == exipirated
$entity.relativeStrength < 0
$entity.weakerThanPlayerButHolding
$entity.escalation == 2
$entity.fleetType == vengeanceFleet score:100",$entity.ignorePlayerCommRequests = true 1,"""The Associates have deemed you unworthy of life. Your pain shall be legendary!""",cutCommLink:Cut the comm link,
greetingVengeanceMadStrongerTemplars,OpenCommLink,"$faction.id == templars
$entity.relativeStrength >= 0
$entity.escalation == 0
$entity.fleetType == vengeanceFleet score:100",$entity.ignorePlayerCommRequests = true 1,"""Your life ends now, blasphemer.""",cutCommLink:Cut the comm link,
greetingVengeanceMadWeakerDefiantTemplars,OpenCommLink,"$faction.id == templars
$entity.relativeStrength < 0
$entity.weakerThanPlayerButHolding
$entity.escalation == 0
$entity.fleetType == vengeanceFleet score:100",$entity.ignorePlayerCommRequests = true 1,"""Your life ends now, blasphemer.""",cutCommLink:Cut the comm link,
greetingVengeanceRavingMadStrongerTemplars,OpenCommLink,"$faction.id == templars
$entity.relativeStrength >= 0
$entity.escalation == 1
$entity.fleetType == vengeanceFleet score:100",$entity.ignorePlayerCommRequests = true 1,"""Heretic, you have been chosen for destruction. Die in the name of $theFactionLong!""",cutCommLink:Cut the comm link,
greetingVengeanceRavingMadWeakerDefiantTemplars,OpenCommLink,"$faction.id == templars
$entity.relativeStrength < 0
$entity.weakerThanPlayerButHolding
$entity.escalation == 1
$entity.fleetType == vengeanceFleet score:100",$entity.ignorePlayerCommRequests = true 1,"""Heretic, you have been chosen for destruction. Die in the name of $theFactionLong!""",cutCommLink:Cut the comm link,
greetingVengeanceStarkRavingMadStrongerTemplars,OpenCommLink,"$faction.id == templars
$entity.relativeStrength >= 0
$entity.escalation == 2
$entity.fleetType == vengeanceFleet score:100",$entity.ignorePlayerCommRequests = true 1,"The $faction $personRank stares you down, completely silent as $hisOrHer $otherShipOrFleet prepares to annihilate you.",cutCommLink:Cut the comm link,
greetingVengeanceStarkRavingMadWeakerDefiantTemplars,OpenCommLink,"$faction.id == templars
$entity.relativeStrength < 0
$entity.weakerThanPlayerButHolding
$entity.escalation == 2
$entity.fleetType == vengeanceFleet score:100",$entity.ignorePlayerCommRequests = true 1,"The $faction $personRank stares you down, completely silent as $hisOrHer $otherShipOrFleet prepares to annihilate you.",cutCommLink:Cut the comm link,
greetingVengeanceMadStrongerExigency,OpenCommLink,"$faction.id == exigency
$entity.relativeStrength >= 0
$entity.escalation == 0
$entity.fleetType == vengeanceFleet score:100",$entity.ignorePlayerCommRequests = true 1,"""You are a navigational hazard. Perish.""",cutCommLink:Cut the comm link,
greetingVengeanceMadWeakerDefiantExigency,OpenCommLink,"$faction.id == exigency
$entity.relativeStrength < 0
$entity.weakerThanPlayerButHolding
$entity.escalation == 0
$entity.fleetType == vengeanceFleet score:100",$entity.ignorePlayerCommRequests = true 1,"""You are a navigational hazard. Perish.""",cutCommLink:Cut the comm link,
greetingVengeanceRavingMadStrongerExigency,OpenCommLink,"$faction.id == exigency
$entity.relativeStrength >= 0
$entity.escalation == 1
$entity.fleetType == vengeanceFleet score:100",$entity.ignorePlayerCommRequests = true 1,"""By order of $theFactionLong, you are hereby stripped of your right to live.""",cutCommLink:Cut the comm link,
greetingVengeanceRavingMadWeakerDefiantExigency,OpenCommLink,"$faction.id == exigency
$entity.relativeStrength < 0
$entity.weakerThanPlayerButHolding
$entity.escalation == 1
$entity.fleetType == vengeanceFleet score:100",$entity.ignorePlayerCommRequests = true 1,"""By order of $theFactionLong, you are hereby stripped of your right to live.""",cutCommLink:Cut the comm link,
greetingVengeanceStarkRavingMadStrongerExigency,OpenCommLink,"$faction.id == exigency
$entity.relativeStrength >= 0
$entity.escalation == 2
$entity.fleetType == vengeanceFleet score:100",$entity.ignorePlayerCommRequests = true 1,"""We have researched you, $playerName. Your weaknesses are analyzed and your advantages nullified. Prepare for termination.""",cutCommLink:Cut the comm link,
greetingVengeanceStarkRavingMadWeakerDefiantExigency,OpenCommLink,"$faction.id == exigency
$entity.relativeStrength < 0
$entity.weakerThanPlayerButHolding
$entity.escalation == 2
$entity.fleetType == vengeanceFleet score:100",$entity.ignorePlayerCommRequests = true 1,"""We have researched you, $playerName. Your weaknesses are analyzed and your advantages nullified. Prepare for termination.""",cutCommLink:Cut the comm link,
