{
    tips:[
        "[SS+] You can enable unique start options by editing SSP_OPTIONS.ini in the Starsector Plus folder.",
        "[SS+] Officers level up faster in frigates and destroyers.",
        "[SS+] Your officers can be killed in battle if their ships are disabled or destroyed.",
    ],
}